{
	"coming": [{
		"id": 1283276,
		"img": "http://p1.meituan.net/w.h/movie/fcabb91dbae511e8a32af1deeb0c1cec204154.jpg",
		"wish": 26813,
		"wishst": 0,
		"nm": "大红包",
		"comingTitle": "4月30日 周四"
	}, {
		"id": 1301478,
		"img": "http://p0.meituan.net/w.h/movie/4e0d0e826fded46ec79e1e335b2482be52178.jpg",
		"wish": 13353,
		"wishst": 0,
		"nm": "北平会馆",
		"comingTitle": "4月4日 周六"
	}, {
		"id": 1292570,
		"img": "http://p0.meituan.net/w.h/moviemachine/e10ceb90d2c06d3524d01d573ccf88fb7514998.jpg",
		"wish": 12669,
		"wishst": 0,
		"nm": "金禅降魔",
		"comingTitle": "5月8日 周五"
	}, {
		"id": 247863,
		"img": "http://p0.meituan.net/w.h/movie/a06c36755e3e4e902235e9904cc1551b4677926.jpg",
		"wish": 8697,
		"wishst": 0,
		"nm": "印度奇游",
		"comingTitle": "5月1日 周五"
	}, {
		"id": 1280270,
		"img": "http://p0.meituan.net/w.h/moviemachine/0c3f4cd8caf0f0848a54e3081349bdac22615677.jpg",
		"wish": 8289,
		"wishst": 0,
		"nm": "魔法学院",
		"comingTitle": "5月1日 周五"
	}, {
		"id": 1259189,
		"img": "http://p0.meituan.net/w.h/movie/31832c7a82d9db4921c55ceab5db30a91720579.jpg",
		"wish": 5471,
		"wishst": 0,
		"nm": "六人-泰坦尼克上的中国幸存者",
		"comingTitle": "4月4日 周六"
	}, {
		"id": 1302405,
		"img": "http://p1.meituan.net/w.h/movie/81fe2197ef930c79624a28cc76c423835264620.png",
		"wish": 4131,
		"wishst": 0,
		"nm": "小公主艾薇拉与神秘王国2",
		"comingTitle": "4月4日 周六"
	}, {
		"id": 1302281,
		"img": "http://p0.meituan.net/w.h/moviemachine/1d2b4985d0187b437d41a73994ba2e191607376.jpg",
		"wish": 4097,
		"wishst": 0,
		"nm": "奇妙王国之魔法奇缘",
		"comingTitle": "4月11日 周六"
	}, {
		"id": 1301612,
		"img": "http://p1.meituan.net/w.h/moviemachine/5abd9fa1ab51da3ff81f52c97e6f9f7076364.jpg",
		"wish": 3467,
		"wishst": 0,
		"nm": "今生只为遇见你",
		"comingTitle": "4月3日 周五"
	}, {
		"id": 1262874,
		"img": "http://p0.meituan.net/w.h/movie/1907a5af889e44236fd80952980d36e13257090.jpg",
		"wish": 1601,
		"wishst": 0,
		"nm": "82号古宅",
		"comingTitle": "5月15日 周五"
	}],
	"paging": {
		"hasMore": true,
		"limit": 10,
		"offset": 0,
		"total": 18
	}
}
